{
   "random" : {
      "set_seed" : true,
      "seed" : 1484051292
   },
   "branching" : {
      "vsids_bump" : 2.0,
      "chance_of_random_pick" : 10,
      "branching_heuristic_1" : "binary_with_vsids",
      "branching_heuristic_2" : "vsids",
      "branching_heuristic" : "fixed_order",
      "literal_order_file" : "cfg/hole10order_2.txt"
   },
   "learning" : {
      "clause_minimization_threshold" : 4,
      "minimization_method" : "globally",
      "minimization_method_1" : "none",
      "minimization_method_2" : "locally_by_resolution",
      "minimization_method_3" : "locally_by_marking"
   },
   "restarts" : {
      "use_restarts" : true,
      "first_restart_conflicts" : 128,
      "restart_conflict_bump" : 1.5,
      "clause_length_bump" : 1.1,
      "init_clause_length_factor" : 1.5,
      "prune_learned_clauses" : true
   }
}
